Brenden Smith - CDCPLACES 1.1.8: 2024 Release
…
New Arguments: cat and age_adjust

Some minor quality of life improvements are introduced with the new arguments cat and age_adjust.

We can filter our results to returns a set of measures by category ID.

Code

get_places(geography = "county",
           state = "AL", 
           cat = "SOCLNEED") |> as_tibble()

# A tibble: 938 × 20
   year  stateabbr statedesc locationname datasource category            measure
   <chr> <chr>     <chr>     <chr>        <chr>      <chr>               <chr>  
 1 2022  AL        Alabama   Escambia     BRFSS      Health-Related Soc… Food i…
 2 2022  AL        Alabama   Greene       BRFSS      Health-Related Soc… Utilit…
 3 2022  AL        Alabama   Morgan       BRFSS      Health-Related Soc… Receiv…
 4 2022  AL        Alabama   Franklin     BRFSS      Health-Related Soc… Feelin…
 5 2022  AL        Alabama   Dale         BRFSS      Health-Related Soc… Food i…
 6 2022  AL        Alabama   Crenshaw     BRFSS      Health-Related Soc… Food i…
 7 2022  AL        Alabama   Greene       BRFSS      Health-Related Soc… Feelin…
 8 2022  AL        Alabama   Tuscaloosa   BRFSS      Health-Related Soc… Housin…
 9 2022  AL        Alabama   Clay         BRFSS      Health-Related Soc… Utilit…
10 2022  AL        Alabama   Clay         BRFSS      Health-Related Soc… Housin…
# ℹ 928 more rows
# ℹ 13 more variables: data_value_unit <chr>, data_value_type <chr>,
#   data_value <dbl>, low_confidence_limit <dbl>, high_confidence_limit <dbl>,
#   totalpopulation <chr>, totalpop18plus <chr>, locationid <chr>,
#   categoryid <chr>, measureid <chr>, datavaluetypeid <chr>,
#   short_question_text <chr>, geolocation <list>

If a measure is provided as well as a category, the category will override it. A message is displayed in the console noting this when it occurs.

To return only the age-adjusted prevalence rates, we can set the argument age_adjust to TRUE. Age-adjusted rates are only available at the county level.

Code

get_places(geography = "county",
           state = "AL", 
           cat = "SOCLNEED", 
           age_adjust = TRUE) |> as_tibble()

# A tibble: 469 × 20
   year  stateabbr statedesc locationname datasource category            measure
   <chr> <chr>     <chr>     <chr>        <chr>      <chr>               <chr>  
 1 2022  AL        Alabama   Choctaw      BRFSS      Health-Related Soc… Feelin…
 2 2022  AL        Alabama   Escambia     BRFSS      Health-Related Soc… Food i…
 3 2022  AL        Alabama   Morgan       BRFSS      Health-Related Soc… Receiv…
 4 2022  AL        Alabama   Dale         BRFSS      Health-Related Soc… Food i…
 5 2022  AL        Alabama   Etowah       BRFSS      Health-Related Soc… Lack o…
 6 2022  AL        Alabama   Wilcox       BRFSS      Health-Related Soc… Housin…
 7 2022  AL        Alabama   Limestone    BRFSS      Health-Related Soc… Food i…
 8 2022  AL        Alabama   Coosa        BRFSS      Health-Related Soc… Food i…
 9 2022  AL        Alabama   Crenshaw     BRFSS      Health-Related Soc… Housin…
10 2022  AL        Alabama   Cleburne     BRFSS      Health-Related Soc… Lack o…
# ℹ 459 more rows
# ℹ 13 more variables: data_value_unit <chr>, data_value_type <chr>,
#   data_value <dbl>, low_confidence_limit <dbl>, high_confidence_limit <dbl>,
#   totalpopulation <chr>, totalpop18plus <chr>, locationid <chr>,
#   categoryid <chr>, measureid <chr>, datavaluetypeid <chr>,
#   short_question_text <chr>, geolocation <list>
…
